info face="" size=12 bold=0 italic=0 charset="" unicode=1 stretchH=100 smooth=1 aa=2 padding=2,2,2,2 spacing=0,0
common lineHeight=204 base=161 scaleW=512 scaleH=512 pages=1 packed=0 alphaChnl=0 redChnl=0 greenChnl=0 blueChnl=0
page id=0 file="font.png"
chars count=193
char id=0     x=2    y=2    width=62   height=107  xoffset=12   yoffset=52   xadvance=90   page=0    chnl=0
char id=32    x=0    y=0    width=0    height=0    xoffset=-2   yoffset=-2   xadvance=39   page=0    chnl=0
char id=33    x=1738 y=418  width=26   height=110  xoffset=7    yoffset=51   xadvance=44   page=0    chnl=0
char id=34    x=1603 y=756  width=53   height=39   xoffset=7    yoffset=51   xadvance=71   page=0    chnl=0
char id=35    x=479  y=646  width=90   height=108  xoffset=1    yoffset=51   xadvance=96   page=0    chnl=0
char id=36    x=1199 y=156  width=73   height=123  xoffset=5    yoffset=44   xadvance=86   page=0    chnl=0
char id=37    x=1848 y=418  width=126  height=110  xoffset=3    yoffset=50   xadvance=136  page=0    chnl=0
char id=38    x=1431 y=418  width=108  height=111  xoffset=4    yoffset=49   xadvance=113  page=0    chnl=0
char id=39    x=1579 y=756  width=22   height=39   xoffset=7    yoffset=51   xadvance=40   page=0    chnl=0
char id=40    x=858  y=156  width=40   height=132  xoffset=4    yoffset=51   xadvance=50   page=0    chnl=0
char id=41    x=900  y=156  width=40   height=132  xoffset=2    yoffset=51   xadvance=50   page=0    chnl=0
char id=42    x=671  y=756  width=74   height=71   xoffset=2    yoffset=44   xadvance=82   page=0    chnl=0
char id=43    x=596  y=756  width=73   height=73   xoffset=4    yoffset=69   xadvance=85   page=0    chnl=0
char id=44    x=1694 y=756  width=30   height=37   xoffset=2    yoffset=141  xadvance=44   page=0    chnl=0
char id=45    x=1999 y=756  width=39   height=19   xoffset=2    yoffset=109  xadvance=47   page=0    chnl=0
char id=46    x=1829 y=756  width=26   height=25   xoffset=7    yoffset=136  xadvance=44   page=0    chnl=0
char id=47    x=571  y=646  width=61   height=108  xoffset=-1   yoffset=51   xadvance=62   page=0    chnl=0
char id=48    x=1284 y=418  width=75   height=111  xoffset=3    yoffset=49   xadvance=85   page=0    chnl=0
char id=49    x=137  y=646  width=54   height=108  xoffset=7    yoffset=51   xadvance=86   page=0    chnl=0
char id=50    x=357  y=535  width=76   height=109  xoffset=3    yoffset=50   xadvance=86   page=0    chnl=0
char id=51    x=906  y=418  width=75   height=111  xoffset=3    yoffset=49   xadvance=86   page=0    chnl=0
char id=52    x=193  y=646  width=81   height=108  xoffset=1    yoffset=51   xadvance=86   page=0    chnl=0
char id=53    x=435  y=535  width=72   height=109  xoffset=5    yoffset=51   xadvance=86   page=0    chnl=0
char id=54    x=983  y=418  width=76   height=111  xoffset=3    yoffset=49   xadvance=86   page=0    chnl=0
char id=55    x=276  y=646  width=77   height=108  xoffset=2    yoffset=51   xadvance=86   page=0    chnl=0
char id=56    x=1061 y=418  width=75   height=111  xoffset=3    yoffset=49   xadvance=85   page=0    chnl=0
char id=57    x=1206 y=418  width=76   height=111  xoffset=3    yoffset=49   xadvance=86   page=0    chnl=0
char id=58    x=1295 y=646  width=26   height=86   xoffset=7    yoffset=75   xadvance=44   page=0    chnl=0
char id=59    x=921  y=646  width=30   height=103  xoffset=3    yoffset=75   xadvance=44   page=0    chnl=0
char id=60    x=446  y=756  width=73   height=81   xoffset=4    yoffset=64   xadvance=85   page=0    chnl=0
char id=61    x=1429 y=756  width=73   height=45   xoffset=4    yoffset=83   xadvance=85   page=0    chnl=0
char id=62    x=371  y=756  width=73   height=81   xoffset=4    yoffset=64   xadvance=85   page=0    chnl=0
char id=63    x=262  y=418  width=68   height=112  xoffset=-2   yoffset=49   xadvance=72   page=0    chnl=0
char id=64    x=1604 y=156  width=120  height=121  xoffset=5    yoffset=49   xadvance=134  page=0    chnl=0
char id=65    x=0    y=535  width=104  height=109  xoffset=-2   yoffset=50   xadvance=103  page=0    chnl=0
char id=66    x=630  y=535  width=80   height=108  xoffset=11   yoffset=51   xadvance=101  page=0    chnl=0
char id=67    x=332  y=418  width=82   height=111  xoffset=7    yoffset=49   xadvance=96   page=0    chnl=0
char id=68    x=712  y=535  width=89   height=108  xoffset=11   yoffset=51   xadvance=111  page=0    chnl=0
char id=69    x=1976 y=418  width=62   height=108  xoffset=11   yoffset=51   xadvance=83   page=0    chnl=0
char id=70    x=803  y=535  width=62   height=108  xoffset=11   yoffset=51   xadvance=82   page=0    chnl=0
char id=71    x=416  y=418  width=88   height=111  xoffset=7    yoffset=49   xadvance=109  page=0    chnl=0
char id=72    x=867  y=535  width=88   height=108  xoffset=11   yoffset=51   xadvance=114  page=0    chnl=0
char id=73    x=957  y=535  width=23   height=108  xoffset=11   yoffset=51   xadvance=49   page=0    chnl=0
char id=74    x=1940 y=2    width=48   height=140  xoffset=-14  yoffset=51   xadvance=49   page=0    chnl=0
char id=75    x=982  y=535  width=87   height=108  xoffset=11   yoffset=51   xadvance=99   page=0    chnl=0
char id=76    x=1071 y=535  width=66   height=108  xoffset=11   yoffset=51   xadvance=84   page=0    chnl=0
char id=77    x=1139 y=535  width=115  height=108  xoffset=11   yoffset=51   xadvance=141  page=0    chnl=0
char id=78    x=1256 y=535  width=95   height=108  xoffset=11   yoffset=51   xadvance=121  page=0    chnl=0
char id=79    x=618  y=418  width=102  height=111  xoffset=7    yoffset=49   xadvance=120  page=0    chnl=0
char id=80    x=106  y=535  width=74   height=109  xoffset=11   yoffset=51   xadvance=94   page=0    chnl=0
char id=81    x=567  y=156  width=102  height=135  xoffset=7    yoffset=49   xadvance=120  page=0    chnl=0
char id=82    x=182  y=535  width=86   height=109  xoffset=11   yoffset=51   xadvance=99   page=0    chnl=0
char id=83    x=722  y=418  width=70   height=111  xoffset=5    yoffset=49   xadvance=83   page=0    chnl=0
char id=84    x=1429 y=535  width=81   height=108  xoffset=1    yoffset=51   xadvance=87   page=0    chnl=0
char id=85    x=1541 y=418  width=88   height=110  xoffset=11   yoffset=50   xadvance=114  page=0    chnl=0
char id=86    x=1512 y=535  width=98   height=108  xoffset=-2   yoffset=51   xadvance=97   page=0    chnl=0
char id=87    x=1612 y=535  width=146  height=108  xoffset=-2   yoffset=51   xadvance=145  page=0    chnl=0
char id=88    x=1760 y=535  width=101  height=108  xoffset=-2   yoffset=51   xadvance=100  page=0    chnl=0
char id=89    x=1863 y=535  width=95   height=108  xoffset=-2   yoffset=51   xadvance=94   page=0    chnl=0
char id=90    x=1960 y=535  width=80   height=108  xoffset=2    yoffset=51   xadvance=88   page=0    chnl=0
char id=91    x=942  y=156  width=36   height=132  xoffset=8    yoffset=51   xadvance=49   page=0    chnl=0
char id=92    x=735  y=646  width=62   height=108  xoffset=-2   yoffset=51   xadvance=62   page=0    chnl=0
char id=93    x=980  y=156  width=36   height=132  xoffset=1    yoffset=51   xadvance=49   page=0    chnl=0
char id=94    x=747  y=756  width=80   height=70   xoffset=-2   yoffset=51   xadvance=80   page=0    chnl=0
char id=95    x=119  y=841  width=62   height=10   xoffset=-2   yoffset=173  xadvance=62   page=0    chnl=0
char id=96    x=1857 y=756  width=43   height=24   xoffset=22   yoffset=43   xadvance=91   page=0    chnl=0
char id=97    x=1323 y=646  width=73   height=86   xoffset=4    yoffset=74   xadvance=90   page=0    chnl=0
char id=98    x=252  y=298  width=77   height=117  xoffset=10   yoffset=44   xadvance=96   page=0    chnl=0
char id=99    x=1462 y=646  width=66   height=86   xoffset=5    yoffset=74   xadvance=77   page=0    chnl=0
char id=100   x=92   y=298  width=77   height=118  xoffset=5    yoffset=44   xadvance=95   page=0    chnl=0
char id=101   x=1611 y=646  width=75   height=85   xoffset=5    yoffset=75   xadvance=88   page=0    chnl=0
char id=102   x=484  y=298  width=62   height=117  xoffset=1    yoffset=42   xadvance=58   page=0    chnl=0
char id=103   x=1726 y=156  width=83   height=120  xoffset=-1   yoffset=75   xadvance=85   page=0    chnl=0
char id=104   x=1790 y=298  width=76   height=115  xoffset=10   yoffset=44   xadvance=99   page=0    chnl=0
char id=105   x=158  y=418  width=24   height=114  xoffset=9    yoffset=44   xadvance=46   page=0    chnl=0
char id=106   x=155  y=2    width=45   height=151  xoffset=-12  yoffset=44   xadvance=46   page=0    chnl=0
char id=107   x=1946 y=298  width=82   height=115  xoffset=10   yoffset=44   xadvance=93   page=0    chnl=0
char id=108   x=0    y=418  width=23   height=115  xoffset=10   yoffset=44   xadvance=47   page=0    chnl=0
char id=109   x=1844 y=646  width=125  height=84   xoffset=10   yoffset=75   xadvance=148  page=0    chnl=0
char id=110   x=1766 y=646  width=76   height=84   xoffset=10   yoffset=75   xadvance=99   page=0    chnl=0
char id=111   x=1530 y=646  width=79   height=86   xoffset=5    yoffset=74   xadvance=93   page=0    chnl=0
char id=112   x=1446 y=156  width=77   height=121  xoffset=9    yoffset=74   xadvance=95   page=0    chnl=0
char id=113   x=1525 y=156  width=77   height=121  xoffset=5    yoffset=74   xadvance=95   page=0    chnl=0
char id=114   x=1971 y=646  width=54   height=84   xoffset=10   yoffset=75   xadvance=69   page=0    chnl=0
char id=115   x=1398 y=646  width=62   height=86   xoffset=5    yoffset=74   xadvance=75   page=0    chnl=0
char id=116   x=953  y=646  width=57   height=102  xoffset=1    yoffset=58   xadvance=65   page=0    chnl=0
char id=117   x=1688 y=646  width=76   height=84   xoffset=9    yoffset=76   xadvance=99   page=0    chnl=0
char id=118   x=128  y=756  width=86   height=83   xoffset=-2   yoffset=76   xadvance=85   page=0    chnl=0
char id=119   x=0    y=756  width=126  height=83   xoffset=-1   yoffset=76   xadvance=128  page=0    chnl=0
char id=120   x=216  y=756  width=86   height=82   xoffset=-2   yoffset=77   xadvance=87   page=0    chnl=0
char id=121   x=1811 y=156  width=87   height=119  xoffset=-3   yoffset=76   xadvance=85   page=0    chnl=0
char id=122   x=304  y=756  width=65   height=82   xoffset=2    yoffset=77   xadvance=73   page=0    chnl=0
char id=123   x=1018 y=156  width=51   height=132  xoffset=0    yoffset=51   xadvance=59   page=0    chnl=0
char id=124   x=369  y=2    width=16   height=149  xoffset=31   yoffset=44   xadvance=82   page=0    chnl=0
char id=125   x=1071 y=156  width=51   height=132  xoffset=3    yoffset=51   xadvance=58   page=0    chnl=0
char id=126   x=1726 y=756  width=73   height=27   xoffset=4    yoffset=92   xadvance=85   page=0    chnl=0
char id=160   x=0    y=0    width=0    height=0    xoffset=-2   yoffset=159  xadvance=39   page=0    chnl=0
char id=161   x=1710 y=418  width=26   height=110  xoffset=7    yoffset=76   xadvance=44   page=0    chnl=0
char id=162   x=1138 y=418  width=66   height=111  xoffset=8    yoffset=49   xadvance=85   page=0    chnl=0
char id=163   x=1631 y=418  width=77   height=110  xoffset=4    yoffset=49   xadvance=86   page=0    chnl=0
char id=164   x=995  y=756  width=70   height=70   xoffset=6    yoffset=71   xadvance=86   page=0    chnl=0
char id=165   x=270  y=535  width=85   height=109  xoffset=-2   yoffset=51   xadvance=85   page=0    chnl=0
char id=166   x=387  y=2    width=16   height=148  xoffset=31   yoffset=44   xadvance=82   page=0    chnl=0
char id=167   x=1978 y=156  width=58   height=118  xoffset=6    yoffset=42   xadvance=73   page=0    chnl=0
char id=168   x=1947 y=756  width=50   height=20   xoffset=18   yoffset=45   xadvance=90   page=0    chnl=0
char id=169   x=506  y=418  width=110  height=111  xoffset=5    yoffset=49   xadvance=124  page=0    chnl=0
char id=170   x=1274 y=756  width=48   height=53   xoffset=1    yoffset=51   xadvance=57   page=0    chnl=0
char id=171   x=912  y=756  width=81   height=70   xoffset=4    yoffset=83   xadvance=92   page=0    chnl=0
char id=172   x=1504 y=756  width=73   height=43   xoffset=4    yoffset=98   xadvance=85   page=0    chnl=0
char id=173   x=0    y=841  width=39   height=19   xoffset=2    yoffset=109  xadvance=47   page=0    chnl=0
char id=174   x=794  y=418  width=110  height=111  xoffset=5    yoffset=49   xadvance=124  page=0    chnl=0
char id=175   x=41   y=841  width=76   height=15   xoffset=-2   yoffset=29   xadvance=76   page=0    chnl=0
char id=176   x=1376 y=756  width=51   height=51   xoffset=5    yoffset=50   xadvance=65   page=0    chnl=0
char id=177   x=1012 y=646  width=73   height=94   xoffset=4    yoffset=65   xadvance=85   page=0    chnl=0
char id=178   x=1186 y=756  width=48   height=66   xoffset=1    yoffset=50   xadvance=56   page=0    chnl=0
char id=179   x=1137 y=756  width=47   height=67   xoffset=2    yoffset=50   xadvance=57   page=0    chnl=0
char id=180   x=1902 y=756  width=43   height=24   xoffset=22   yoffset=43   xadvance=91   page=0    chnl=0
char id=181   x=1900 y=156  width=76   height=119  xoffset=10   yoffset=76   xadvance=100  page=0    chnl=0
char id=182   x=671  y=156  width=78   height=134  xoffset=6    yoffset=44   xadvance=99   page=0    chnl=0
char id=183   x=1801 y=756  width=26   height=25   xoffset=7    yoffset=93   xadvance=44   page=0    chnl=0
char id=184   x=1658 y=756  width=34   height=37   xoffset=-5   yoffset=158  xadvance=32   page=0    chnl=0
char id=185   x=1236 y=756  width=36   height=64   xoffset=5    yoffset=52   xadvance=57   page=0    chnl=0
char id=186   x=1324 y=756  width=50   height=53   xoffset=2    yoffset=51   xadvance=58   page=0    chnl=0
char id=187   x=829  y=756  width=81   height=70   xoffset=3    yoffset=83   xadvance=92   page=0    chnl=0
char id=188   x=799  y=646  width=120  height=108  xoffset=1    yoffset=51   xadvance=132  page=0    chnl=0
char id=189   x=355  y=646  width=122  height=108  xoffset=1    yoffset=51   xadvance=131  page=0    chnl=0
char id=190   x=509  y=535  width=119  height=109  xoffset=4    yoffset=50   xadvance=132  page=0    chnl=0
char id=191   x=1361 y=418  width=68   height=111  xoffset=2    yoffset=77   xadvance=71   page=0    chnl=0
char id=192   x=1071 y=2    width=104  height=141  xoffset=-2   yoffset=18   xadvance=104  page=0    chnl=0
char id=193   x=1177 y=2    width=105  height=141  xoffset=-2   yoffset=18   xadvance=104  page=0    chnl=0
char id=194   x=1284 y=2    width=104  height=141  xoffset=-2   yoffset=18   xadvance=104  page=0    chnl=0
char id=195   x=194  y=156  width=104  height=139  xoffset=-2   yoffset=20   xadvance=103  page=0    chnl=0
char id=196   x=300  y=156  width=104  height=139  xoffset=-2   yoffset=20   xadvance=104  page=0    chnl=0
char id=197   x=751  y=156  width=105  height=133  xoffset=-3   yoffset=26   xadvance=103  page=0    chnl=0
char id=198   x=0    y=646  width=135  height=108  xoffset=-3   yoffset=51   xadvance=143  page=0    chnl=0
char id=199   x=405  y=2    width=82   height=146  xoffset=7    yoffset=49   xadvance=96   page=0    chnl=0
char id=200   x=1390 y=2    width=62   height=141  xoffset=11   yoffset=18   xadvance=83   page=0    chnl=0
char id=201   x=1454 y=2    width=62   height=141  xoffset=11   yoffset=18   xadvance=83   page=0    chnl=0
char id=202   x=1518 y=2    width=64   height=141  xoffset=11   yoffset=18   xadvance=85   page=0    chnl=0
char id=203   x=406  y=156  width=62   height=139  xoffset=11   yoffset=20   xadvance=83   page=0    chnl=0
char id=204   x=1584 y=2    width=43   height=141  xoffset=-7   yoffset=18   xadvance=49   page=0    chnl=0
char id=205   x=1629 y=2    width=42   height=141  xoffset=10   yoffset=18   xadvance=49   page=0    chnl=0
char id=206   x=1673 y=2    width=64   height=141  xoffset=-9   yoffset=18   xadvance=50   page=0    chnl=0
char id=207   x=1990 y=2    width=50   height=139  xoffset=-2   yoffset=20   xadvance=50   page=0    chnl=0
char id=208   x=634  y=646  width=99   height=108  xoffset=1    yoffset=51   xadvance=111  page=0    chnl=0
char id=209   x=470  y=156  width=95   height=139  xoffset=11   yoffset=20   xadvance=121  page=0    chnl=0
char id=210   x=489  y=2    width=102  height=142  xoffset=7    yoffset=18   xadvance=120  page=0    chnl=0
char id=211   x=593  y=2    width=102  height=142  xoffset=7    yoffset=18   xadvance=120  page=0    chnl=0
char id=212   x=697  y=2    width=102  height=142  xoffset=7    yoffset=18   xadvance=120  page=0    chnl=0
char id=213   x=1739 y=2    width=102  height=141  xoffset=7    yoffset=19   xadvance=120  page=0    chnl=0
char id=214   x=0    y=156  width=102  height=140  xoffset=7    yoffset=20   xadvance=120  page=0    chnl=0
char id=215   x=1067 y=756  width=68   height=68   xoffset=7    yoffset=72   xadvance=86   page=0    chnl=0
char id=216   x=1274 y=156  width=102  height=122  xoffset=7    yoffset=44   xadvance=120  page=0    chnl=0
char id=217   x=801  y=2    width=88   height=142  xoffset=11   yoffset=18   xadvance=114  page=0    chnl=0
char id=218   x=891  y=2    width=88   height=142  xoffset=11   yoffset=18   xadvance=114  page=0    chnl=0
char id=219   x=981  y=2    width=88   height=142  xoffset=11   yoffset=18   xadvance=114  page=0    chnl=0
char id=220   x=104  y=156  width=88   height=140  xoffset=11   yoffset=20   xadvance=114  page=0    chnl=0
char id=221   x=1843 y=2    width=95   height=141  xoffset=-3   yoffset=18   xadvance=93   page=0    chnl=0
char id=222   x=1353 y=535  width=74   height=108  xoffset=11   yoffset=51   xadvance=94   page=0    chnl=0
char id=223   x=0    y=298  width=90   height=118  xoffset=10   yoffset=42   xadvance=107  page=0    chnl=0
char id=224   x=700  y=298  width=73   height=117  xoffset=4    yoffset=43   xadvance=90   page=0    chnl=0
char id=225   x=625  y=298  width=73   height=117  xoffset=4    yoffset=43   xadvance=90   page=0    chnl=0
char id=226   x=331  y=298  width=73   height=117  xoffset=4    yoffset=43   xadvance=90   page=0    chnl=0
char id=227   x=1372 y=298  width=73   height=116  xoffset=4    yoffset=44   xadvance=90   page=0    chnl=0
char id=228   x=1638 y=298  width=73   height=115  xoffset=4    yoffset=45   xadvance=90   page=0    chnl=0
char id=229   x=1124 y=156  width=73   height=128  xoffset=4    yoffset=32   xadvance=90   page=0    chnl=0
char id=230   x=1168 y=646  width=125  height=86   xoffset=4    yoffset=74   xadvance=137  page=0    chnl=0
char id=231   x=1378 y=156  width=66   height=121  xoffset=5    yoffset=74   xadvance=77   page=0    chnl=0
char id=232   x=548  y=298  width=75   height=117  xoffset=5    yoffset=43   xadvance=88   page=0    chnl=0
char id=233   x=1173 y=298  width=75   height=117  xoffset=5    yoffset=43   xadvance=88   page=0    chnl=0
char id=234   x=775  y=298  width=75   height=117  xoffset=5    yoffset=43   xadvance=88   page=0    chnl=0
char id=235   x=1713 y=298  width=75   height=115  xoffset=5    yoffset=45   xadvance=88   page=0    chnl=0
char id=236   x=1328 y=298  width=42   height=116  xoffset=-9   yoffset=43   xadvance=46   page=0    chnl=0
char id=237   x=1594 y=298  width=42   height=116  xoffset=9    yoffset=43   xadvance=46   page=0    chnl=0
char id=238   x=1447 y=298  width=64   height=116  xoffset=-11  yoffset=43   xadvance=46   page=0    chnl=0
char id=239   x=106  y=418  width=50   height=114  xoffset=-4   yoffset=45   xadvance=46   page=0    chnl=0
char id=240   x=171  y=298  width=79   height=118  xoffset=5    yoffset=42   xadvance=93   page=0    chnl=0
char id=241   x=184  y=418  width=76   height=114  xoffset=10   yoffset=45   xadvance=99   page=0    chnl=0
char id=242   x=933  y=298  width=79   height=117  xoffset=5    yoffset=43   xadvance=93   page=0    chnl=0
char id=243   x=852  y=298  width=79   height=117  xoffset=5    yoffset=43   xadvance=93   page=0    chnl=0
char id=244   x=1014 y=298  width=79   height=117  xoffset=5    yoffset=43   xadvance=93   page=0    chnl=0
char id=245   x=1513 y=298  width=79   height=116  xoffset=5    yoffset=44   xadvance=93   page=0    chnl=0
char id=246   x=25   y=418  width=79   height=115  xoffset=5    yoffset=45   xadvance=93   page=0    chnl=0
char id=247   x=521  y=756  width=73   height=74   xoffset=4    yoffset=69   xadvance=85   page=0    chnl=0
char id=248   x=1087 y=646  width=79   height=93   xoffset=5    yoffset=72   xadvance=93   page=0    chnl=0
char id=249   x=406  y=298  width=76   height=117  xoffset=9    yoffset=43   xadvance=99   page=0    chnl=0
char id=250   x=1250 y=298  width=76   height=117  xoffset=9    yoffset=43   xadvance=99   page=0    chnl=0
char id=251   x=1095 y=298  width=76   height=117  xoffset=9    yoffset=43   xadvance=99   page=0    chnl=0
char id=252   x=1868 y=298  width=76   height=115  xoffset=9    yoffset=45   xadvance=99   page=0    chnl=0
char id=253   x=66   y=2    width=87   height=152  xoffset=-3   yoffset=43   xadvance=85   page=0    chnl=0
char id=254   x=202  y=2    width=77   height=151  xoffset=10   yoffset=44   xadvance=96   page=0    chnl=0
char id=255   x=281  y=2    width=86   height=150  xoffset=-2   yoffset=45   xadvance=85   page=0    chnl=0
char id=8364  x=1766 y=418  width=80   height=110  xoffset=3    yoffset=50   xadvance=86   page=0    chnl=0
kernings count=1126
kerning first=34 second=65 amount=-10
kerning first=34 second=84 amount=3
kerning first=34 second=86 amount=3
kerning first=34 second=87 amount=3
kerning first=34 second=89 amount=1
kerning first=34 second=97 amount=-6
kerning first=34 second=99 amount=-9
kerning first=34 second=100 amount=-9
kerning first=34 second=101 amount=-9
kerning first=34 second=103 amount=-4
kerning first=34 second=109 amount=-4
kerning first=34 second=110 amount=-4
kerning first=34 second=111 amount=-9
kerning first=34 second=112 amount=-4
kerning first=34 second=113 amount=-9
kerning first=34 second=114 amount=-4
kerning first=34 second=115 amount=-4
kerning first=34 second=117 amount=-4
kerning first=34 second=192 amount=-10
kerning first=34 second=193 amount=-10
kerning first=34 second=194 amount=-10
kerning first=34 second=195 amount=-10
kerning first=34 second=196 amount=-10
kerning first=34 second=197 amount=-10
kerning first=34 second=221 amount=1
kerning first=34 second=224 amount=-9
kerning first=34 second=225 amount=-6
kerning first=34 second=226 amount=-6
kerning first=34 second=227 amount=-6
kerning first=34 second=228 amount=-6
kerning first=34 second=229 amount=-6
kerning first=34 second=230 amount=-6
kerning first=34 second=231 amount=-9
kerning first=34 second=232 amount=-9
kerning first=34 second=233 amount=-9
kerning first=34 second=234 amount=-9
kerning first=34 second=235 amount=-9
kerning first=34 second=242 amount=-9
kerning first=34 second=243 amount=-9
kerning first=34 second=244 amount=-9
kerning first=34 second=245 amount=-9
kerning first=34 second=246 amount=-9
kerning first=34 second=248 amount=-9
kerning first=34 second=249 amount=-4
kerning first=34 second=250 amount=-4
kerning first=34 second=251 amount=-4
kerning first=34 second=252 amount=-4
kerning first=39 second=65 amount=-10
kerning first=39 second=84 amount=3
kerning first=39 second=86 amount=3
kerning first=39 second=87 amount=3
kerning first=39 second=89 amount=1
kerning first=39 second=97 amount=-6
kerning first=39 second=99 amount=-9
kerning first=39 second=100 amount=-9
kerning first=39 second=101 amount=-9
kerning first=39 second=103 amount=-4
kerning first=39 second=109 amount=-4
kerning first=39 second=110 amount=-4
kerning first=39 second=111 amount=-9
kerning first=39 second=112 amount=-4
kerning first=39 second=113 amount=-9
kerning first=39 second=114 amount=-4
kerning first=39 second=115 amount=-4
kerning first=39 second=117 amount=-4
kerning first=39 second=192 amount=-10
kerning first=39 second=193 amount=-10
kerning first=39 second=194 amount=-10
kerning first=39 second=195 amount=-10
kerning first=39 second=196 amount=-10
kerning first=39 second=197 amount=-10
kerning first=39 second=221 amount=1
kerning first=39 second=224 amount=-9
kerning first=39 second=225 amount=-6
kerning first=39 second=226 amount=-6
kerning first=39 second=227 amount=-6
kerning first=39 second=228 amount=-6
kerning first=39 second=229 amount=-6
kerning first=39 second=230 amount=-6
kerning first=39 second=231 amount=-9
kerning first=39 second=232 amount=-9
kerning first=39 second=233 amount=-9
kerning first=39 second=234 amount=-9
kerning first=39 second=235 amount=-9
kerning first=39 second=242 amount=-9
kerning first=39 second=243 amount=-9
kerning first=39 second=244 amount=-9
kerning first=39 second=245 amount=-9
kerning first=39 second=246 amount=-9
kerning first=39 second=248 amount=-9
kerning first=39 second=249 amount=-4
kerning first=39 second=250 amount=-4
kerning first=39 second=251 amount=-4
kerning first=39 second=252 amount=-4
kerning first=40 second=74 amount=13
kerning first=44 second=67 amount=-7
kerning first=44 second=71 amount=-7
kerning first=44 second=79 amount=-7
kerning first=44 second=81 amount=-7
kerning first=44 second=84 amount=-10
kerning first=44 second=85 amount=-3
kerning first=44 second=86 amount=-9
kerning first=44 second=87 amount=-9
kerning first=44 second=89 amount=-9
kerning first=44 second=199 amount=-7
kerning first=44 second=210 amount=-7
kerning first=44 second=211 amount=-7
kerning first=44 second=212 amount=-7
kerning first=44 second=213 amount=-7
kerning first=44 second=214 amount=-7
kerning first=44 second=216 amount=-7
kerning first=44 second=217 amount=-3
kerning first=44 second=218 amount=-3
kerning first=44 second=219 amount=-3
kerning first=44 second=220 amount=-3
kerning first=44 second=221 amount=-9
kerning first=45 second=84 amount=-6
kerning first=46 second=67 amount=-7
kerning first=46 second=71 amount=-7
kerning first=46 second=79 amount=-7
kerning first=46 second=81 amount=-7
kerning first=46 second=84 amount=-10
kerning first=46 second=85 amount=-3
kerning first=46 second=86 amount=-9
kerning first=46 second=87 amount=-9
kerning first=46 second=89 amount=-9
kerning first=46 second=199 amount=-7
kerning first=46 second=210 amount=-7
kerning first=46 second=211 amount=-7
kerning first=46 second=212 amount=-7
kerning first=46 second=213 amount=-7
kerning first=46 second=214 amount=-7
kerning first=46 second=216 amount=-7
kerning first=46 second=217 amount=-3
kerning first=46 second=218 amount=-3
kerning first=46 second=219 amount=-3
kerning first=46 second=220 amount=-3
kerning first=46 second=221 amount=-9
kerning first=65 second=34 amount=-10
kerning first=65 second=39 amount=-10
kerning first=65 second=67 amount=-3
kerning first=65 second=71 amount=-3
kerning first=65 second=74 amount=19
kerning first=65 second=79 amount=-3
kerning first=65 second=81 amount=-3
kerning first=65 second=84 amount=-10
kerning first=65 second=86 amount=-6
kerning first=65 second=87 amount=-6
kerning first=65 second=89 amount=-9
kerning first=65 second=199 amount=-3
kerning first=65 second=210 amount=-3
kerning first=65 second=211 amount=-3
kerning first=65 second=212 amount=-3
kerning first=65 second=213 amount=-3
kerning first=65 second=214 amount=-3
kerning first=65 second=216 amount=-3
kerning first=65 second=221 amount=-9
kerning first=66 second=44 amount=-6
kerning first=66 second=46 amount=-6
kerning first=66 second=65 amount=-3
kerning first=66 second=84 amount=-4
kerning first=66 second=86 amount=-1
kerning first=66 second=87 amount=-1
kerning first=66 second=88 amount=-3
kerning first=66 second=89 amount=-1
kerning first=66 second=90 amount=-1
kerning first=66 second=192 amount=-3
kerning first=66 second=193 amount=-3
kerning first=66 second=194 amount=-3
kerning first=66 second=195 amount=-3
kerning first=66 second=196 amount=-3
kerning first=66 second=197 amount=-3
kerning first=66 second=221 amount=-1
kerning first=67 second=67 amount=-3
kerning first=67 second=71 amount=-3
kerning first=67 second=79 amount=-3
kerning first=67 second=81 amount=-3
kerning first=67 second=199 amount=-3
kerning first=67 second=210 amount=-3
kerning first=67 second=211 amount=-3
kerning first=67 second=212 amount=-3
kerning first=67 second=213 amount=-3
kerning first=67 second=214 amount=-3
kerning first=67 second=216 amount=-3
kerning first=68 second=44 amount=-6
kerning first=68 second=46 amount=-6
kerning first=68 second=65 amount=-3
kerning first=68 second=84 amount=-4
kerning first=68 second=86 amount=-1
kerning first=68 second=87 amount=-1
kerning first=68 second=88 amount=-3
kerning first=68 second=89 amount=-1
kerning first=68 second=90 amount=-1
kerning first=68 second=192 amount=-3
kerning first=68 second=193 amount=-3
kerning first=68 second=194 amount=-3
kerning first=68 second=195 amount=-3
kerning first=68 second=196 amount=-3
kerning first=68 second=197 amount=-3
kerning first=68 second=221 amount=-1
kerning first=69 second=74 amount=9
kerning first=70 second=44 amount=-9
kerning first=70 second=46 amount=-9
kerning first=70 second=63 amount=3
kerning first=70 second=65 amount=-3
kerning first=70 second=192 amount=-3
kerning first=70 second=193 amount=-3
kerning first=70 second=194 amount=-3
kerning first=70 second=195 amount=-3
kerning first=70 second=196 amount=-3
kerning first=70 second=197 amount=-3
kerning first=75 second=67 amount=-3
kerning first=75 second=71 amount=-3
kerning first=75 second=79 amount=-3
kerning first=75 second=81 amount=-3
kerning first=75 second=199 amount=-3
kerning first=75 second=210 amount=-3
kerning first=75 second=211 amount=-3
kerning first=75 second=212 amount=-3
kerning first=75 second=213 amount=-3
kerning first=75 second=214 amount=-3
kerning first=75 second=216 amount=-3
kerning first=76 second=34 amount=-12
kerning first=76 second=39 amount=-12
kerning first=76 second=67 amount=-3
kerning first=76 second=71 amount=-3
kerning first=76 second=79 amount=-3
kerning first=76 second=81 amount=-3
kerning first=76 second=84 amount=-3
kerning first=76 second=85 amount=-1
kerning first=76 second=86 amount=-3
kerning first=76 second=87 amount=-3
kerning first=76 second=89 amount=-4
kerning first=76 second=199 amount=-3
kerning first=76 second=210 amount=-3
kerning first=76 second=211 amount=-3
kerning first=76 second=212 amount=-3
kerning first=76 second=213 amount=-3
kerning first=76 second=214 amount=-3
kerning first=76 second=216 amount=-3
kerning first=76 second=217 amount=-1
kerning first=76 second=218 amount=-1
kerning first=76 second=219 amount=-1
kerning first=76 second=220 amount=-1
kerning first=76 second=221 amount=-4
kerning first=79 second=44 amount=-6
kerning first=79 second=46 amount=-6
kerning first=79 second=65 amount=-3
kerning first=79 second=84 amount=-4
kerning first=79 second=86 amount=-1
kerning first=79 second=87 amount=-1
kerning first=79 second=88 amount=-3
kerning first=79 second=89 amount=-1
kerning first=79 second=90 amount=-1
kerning first=79 second=192 amount=-3
kerning first=79 second=193 amount=-3
kerning first=79 second=194 amount=-3
kerning first=79 second=195 amount=-3
kerning first=79 second=196 amount=-3
kerning first=79 second=197 amount=-3
kerning first=79 second=221 amount=-1
kerning first=80 second=44 amount=-19
kerning first=80 second=46 amount=-19
kerning first=80 second=65 amount=-7
kerning first=80 second=88 amount=-3
kerning first=80 second=90 amount=-1
kerning first=80 second=192 amount=-7
kerning first=80 second=193 amount=-7
kerning first=80 second=194 amount=-7
kerning first=80 second=195 amount=-7
kerning first=80 second=196 amount=-7
kerning first=80 second=197 amount=-7
kerning first=81 second=44 amount=-6
kerning first=81 second=46 amount=-6
kerning first=81 second=65 amount=-3
kerning first=81 second=84 amount=-4
kerning first=81 second=86 amount=-1
kerning first=81 second=87 amount=-1
kerning first=81 second=88 amount=-3
kerning first=81 second=89 amount=-1
kerning first=81 second=90 amount=-1
kerning first=81 second=192 amount=-3
kerning first=81 second=193 amount=-3
kerning first=81 second=194 amount=-3
kerning first=81 second=195 amount=-3
kerning first=81 second=196 amount=-3
kerning first=81 second=197 amount=-3
kerning first=81 second=221 amount=-1
kerning first=84 second=44 amount=-9
kerning first=84 second=45 amount=-6
kerning first=84 second=46 amount=-9
kerning first=84 second=63 amount=3
kerning first=84 second=65 amount=-10
kerning first=84 second=67 amount=-3
kerning first=84 second=71 amount=-3
kerning first=84 second=79 amount=-3
kerning first=84 second=81 amount=-3
kerning first=84 second=84 amount=3
kerning first=84 second=97 amount=-12
kerning first=84 second=99 amount=-10
kerning first=84 second=100 amount=-10
kerning first=84 second=101 amount=-10
kerning first=84 second=103 amount=-10
kerning first=84 second=109 amount=-7
kerning first=84 second=110 amount=-7
kerning first=84 second=111 amount=-10
kerning first=84 second=112 amount=-7
kerning first=84 second=113 amount=-10
kerning first=84 second=114 amount=-7
kerning first=84 second=115 amount=-9
kerning first=84 second=117 amount=-7
kerning first=84 second=118 amount=-3
kerning first=84 second=119 amount=-3
kerning first=84 second=120 amount=-3
kerning first=84 second=121 amount=-3
kerning first=84 second=122 amount=-6
kerning first=84 second=192 amount=-10
kerning first=84 second=193 amount=-10
kerning first=84 second=194 amount=-10
kerning first=84 second=195 amount=-10
kerning first=84 second=196 amount=-10
kerning first=84 second=197 amount=-10
kerning first=84 second=199 amount=-3
kerning first=84 second=210 amount=-3
kerning first=84 second=211 amount=-3
kerning first=84 second=212 amount=-3
kerning first=84 second=213 amount=-3
kerning first=84 second=214 amount=-3
kerning first=84 second=216 amount=-3
kerning first=84 second=224 amount=-10
kerning first=84 second=225 amount=-12
kerning first=84 second=226 amount=-12
kerning first=84 second=227 amount=-12
kerning first=84 second=228 amount=-12
kerning first=84 second=229 amount=-12
kerning first=84 second=230 amount=-12
kerning first=84 second=231 amount=-10
kerning first=84 second=232 amount=-10
kerning first=84 second=233 amount=-10
kerning first=84 second=234 amount=-10
kerning first=84 second=235 amount=-10
kerning first=84 second=242 amount=-10
kerning first=84 second=243 amount=-10
kerning first=84 second=244 amount=-10
kerning first=84 second=245 amount=-10
kerning first=84 second=246 amount=-10
kerning first=84 second=248 amount=-10
kerning first=84 second=249 amount=-7
kerning first=84 second=250 amount=-7
kerning first=84 second=251 amount=-7
kerning first=84 second=252 amount=-7
kerning first=84 second=253 amount=-3
kerning first=85 second=44 amount=-3
kerning first=85 second=46 amount=-3
kerning first=85 second=65 amount=-1
kerning first=85 second=192 amount=-1
kerning first=85 second=193 amount=-1
kerning first=85 second=194 amount=-1
kerning first=85 second=195 amount=-1
kerning first=85 second=196 amount=-1
kerning first=85 second=197 amount=-1
kerning first=86 second=44 amount=-7
kerning first=86 second=46 amount=-7
kerning first=86 second=63 amount=3
kerning first=86 second=65 amount=-6
kerning first=86 second=67 amount=-1
kerning first=86 second=71 amount=-1
kerning first=86 second=79 amount=-1
kerning first=86 second=81 amount=-1
kerning first=86 second=97 amount=-3
kerning first=86 second=99 amount=-3
kerning first=86 second=100 amount=-3
kerning first=86 second=101 amount=-3
kerning first=86 second=103 amount=-1
kerning first=86 second=109 amount=-1
kerning first=86 second=110 amount=-1
kerning first=86 second=111 amount=-3
kerning first=86 second=112 amount=-1
kerning first=86 second=113 amount=-3
kerning first=86 second=114 amount=-1
kerning first=86 second=115 amount=-1
kerning first=86 second=117 amount=-1
kerning first=86 second=192 amount=-6
kerning first=86 second=193 amount=-6
kerning first=86 second=194 amount=-6
kerning first=86 second=195 amount=-6
kerning first=86 second=196 amount=-6
kerning first=86 second=197 amount=-6
kerning first=86 second=199 amount=-1
kerning first=86 second=210 amount=-1
kerning first=86 second=211 amount=-1
kerning first=86 second=212 amount=-1
kerning first=86 second=213 amount=-1
kerning first=86 second=214 amount=-1
kerning first=86 second=216 amount=-1
kerning first=86 second=224 amount=-3
kerning first=86 second=225 amount=-3
kerning first=86 second=226 amount=-3
kerning first=86 second=227 amount=-3
kerning first=86 second=228 amount=-3
kerning first=86 second=229 amount=-3
kerning first=86 second=230 amount=-3
kerning first=86 second=231 amount=-3
kerning first=86 second=232 amount=-3
kerning first=86 second=233 amount=-3
kerning first=86 second=234 amount=-3
kerning first=86 second=235 amount=-3
kerning first=86 second=242 amount=-3
kerning first=86 second=243 amount=-3
kerning first=86 second=244 amount=-3
kerning first=86 second=245 amount=-3
kerning first=86 second=246 amount=-3
kerning first=86 second=248 amount=-3
kerning first=86 second=249 amount=-1
kerning first=86 second=250 amount=-1
kerning first=86 second=251 amount=-1
kerning first=86 second=252 amount=-1
kerning first=87 second=44 amount=-7
kerning first=87 second=46 amount=-7
kerning first=87 second=63 amount=3
kerning first=87 second=65 amount=-6
kerning first=87 second=67 amount=-1
kerning first=87 second=71 amount=-1
kerning first=87 second=79 amount=-1
kerning first=87 second=81 amount=-1
kerning first=87 second=97 amount=-3
kerning first=87 second=99 amount=-3
kerning first=87 second=100 amount=-3
kerning first=87 second=101 amount=-3
kerning first=87 second=103 amount=-1
kerning first=87 second=109 amount=-1
kerning first=87 second=110 amount=-1
kerning first=87 second=111 amount=-3
kerning first=87 second=112 amount=-1
kerning first=87 second=113 amount=-3
kerning first=87 second=114 amount=-1
kerning first=87 second=115 amount=-1
kerning first=87 second=117 amount=-1
kerning first=87 second=192 amount=-6
kerning first=87 second=193 amount=-6
kerning first=87 second=194 amount=-6
kerning first=87 second=195 amount=-6
kerning first=87 second=196 amount=-6
kerning first=87 second=197 amount=-6
kerning first=87 second=199 amount=-1
kerning first=87 second=210 amount=-1
kerning first=87 second=211 amount=-1
kerning first=87 second=212 amount=-1
kerning first=87 second=213 amount=-1
kerning first=87 second=214 amount=-1
kerning first=87 second=216 amount=-1
kerning first=87 second=224 amount=-3
kerning first=87 second=225 amount=-3
kerning first=87 second=226 amount=-3
kerning first=87 second=227 amount=-3
kerning first=87 second=228 amount=-3
kerning first=87 second=229 amount=-3
kerning first=87 second=230 amount=-3
kerning first=87 second=231 amount=-3
kerning first=87 second=232 amount=-3
kerning first=87 second=233 amount=-3
kerning first=87 second=234 amount=-3
kerning first=87 second=235 amount=-3
kerning first=87 second=242 amount=-3
kerning first=87 second=243 amount=-3
kerning first=87 second=244 amount=-3
kerning first=87 second=245 amount=-3
kerning first=87 second=246 amount=-3
kerning first=87 second=248 amount=-3
kerning first=87 second=249 amount=-1
kerning first=87 second=250 amount=-1
kerning first=87 second=251 amount=-1
kerning first=87 second=252 amount=-1
kerning first=88 second=67 amount=-3
kerning first=88 second=71 amount=-3
kerning first=88 second=79 amount=-3
kerning first=88 second=81 amount=-3
kerning first=88 second=199 amount=-3
kerning first=88 second=210 amount=-3
kerning first=88 second=211 amount=-3
kerning first=88 second=212 amount=-3
kerning first=88 second=213 amount=-3
kerning first=88 second=214 amount=-3
kerning first=88 second=216 amount=-3
kerning first=89 second=44 amount=-9
kerning first=89 second=46 amount=-9
kerning first=89 second=63 amount=3
kerning first=89 second=65 amount=-9
kerning first=89 second=67 amount=-3
kerning first=89 second=71 amount=-3
kerning first=89 second=79 amount=-3
kerning first=89 second=81 amount=-3
kerning first=89 second=97 amount=-7
kerning first=89 second=99 amount=-7
kerning first=89 second=100 amount=-7
kerning first=89 second=101 amount=-7
kerning first=89 second=103 amount=-3
kerning first=89 second=109 amount=-4
kerning first=89 second=110 amount=-4
kerning first=89 second=111 amount=-7
kerning first=89 second=112 amount=-4
kerning first=89 second=113 amount=-7
kerning first=89 second=114 amount=-4
kerning first=89 second=115 amount=-6
kerning first=89 second=117 amount=-4
kerning first=89 second=122 amount=-3
kerning first=89 second=192 amount=-9
kerning first=89 second=193 amount=-9
kerning first=89 second=194 amount=-9
kerning first=89 second=195 amount=-9
kerning first=89 second=196 amount=-9
kerning first=89 second=197 amount=-9
kerning first=89 second=199 amount=-3
kerning first=89 second=210 amount=-3
kerning first=89 second=211 amount=-3
kerning first=89 second=212 amount=-3
kerning first=89 second=213 amount=-3
kerning first=89 second=214 amount=-3
kerning first=89 second=216 amount=-3
kerning first=89 second=224 amount=-7
kerning first=89 second=225 amount=-7
kerning first=89 second=226 amount=-7
kerning first=89 second=227 amount=-7
kerning first=89 second=228 amount=-7
kerning first=89 second=229 amount=-7
kerning first=89 second=230 amount=-7
kerning first=89 second=231 amount=-7
kerning first=89 second=232 amount=-7
kerning first=89 second=233 amount=-7
kerning first=89 second=234 amount=-7
kerning first=89 second=235 amount=-7
kerning first=89 second=242 amount=-7
kerning first=89 second=243 amount=-7
kerning first=89 second=244 amount=-7
kerning first=89 second=245 amount=-7
kerning first=89 second=246 amount=-7
kerning first=89 second=248 amount=-7
kerning first=89 second=249 amount=-4
kerning first=89 second=250 amount=-4
kerning first=89 second=251 amount=-4
kerning first=89 second=252 amount=-4
kerning first=90 second=67 amount=-1
kerning first=90 second=71 amount=-1
kerning first=90 second=79 amount=-1
kerning first=90 second=81 amount=-1
kerning first=90 second=199 amount=-1
kerning first=90 second=210 amount=-1
kerning first=90 second=211 amount=-1
kerning first=90 second=212 amount=-1
kerning first=90 second=213 amount=-1
kerning first=90 second=214 amount=-1
kerning first=90 second=216 amount=-1
kerning first=91 second=74 amount=13
kerning first=97 second=34 amount=-1
kerning first=97 second=39 amount=-1
kerning first=98 second=34 amount=-1
kerning first=98 second=39 amount=-1
kerning first=98 second=118 amount=-3
kerning first=98 second=119 amount=-3
kerning first=98 second=120 amount=-3
kerning first=98 second=121 amount=-3
kerning first=98 second=122 amount=-1
kerning first=98 second=253 amount=-3
kerning first=99 second=34 amount=3
kerning first=99 second=39 amount=3
kerning first=101 second=34 amount=-1
kerning first=101 second=39 amount=-1
kerning first=101 second=118 amount=-3
kerning first=101 second=119 amount=-3
kerning first=101 second=120 amount=-3
kerning first=101 second=121 amount=-3
kerning first=101 second=122 amount=-1
kerning first=101 second=253 amount=-3
kerning first=102 second=34 amount=9
kerning first=102 second=39 amount=9
kerning first=104 second=34 amount=-1
kerning first=104 second=39 amount=-1
kerning first=107 second=99 amount=-3
kerning first=107 second=100 amount=-3
kerning first=107 second=101 amount=-3
kerning first=107 second=111 amount=-3
kerning first=107 second=113 amount=-3
kerning first=107 second=224 amount=-3
kerning first=107 second=231 amount=-3
kerning first=107 second=232 amount=-3
kerning first=107 second=233 amount=-3
kerning first=107 second=234 amount=-3
kerning first=107 second=235 amount=-3
kerning first=107 second=242 amount=-3
kerning first=107 second=243 amount=-3
kerning first=107 second=244 amount=-3
kerning first=107 second=245 amount=-3
kerning first=107 second=246 amount=-3
kerning first=107 second=248 amount=-3
kerning first=109 second=34 amount=-1
kerning first=109 second=39 amount=-1
kerning first=110 second=34 amount=-1
kerning first=110 second=39 amount=-1
kerning first=111 second=34 amount=-1
kerning first=111 second=39 amount=-1
kerning first=111 second=118 amount=-3
kerning first=111 second=119 amount=-3
kerning first=111 second=120 amount=-3
kerning first=111 second=121 amount=-3
kerning first=111 second=122 amount=-1
kerning first=111 second=253 amount=-3
kerning first=112 second=34 amount=-1
kerning first=112 second=39 amount=-1
kerning first=112 second=118 amount=-3
kerning first=112 second=119 amount=-3
kerning first=112 second=120 amount=-3
kerning first=112 second=121 amount=-3
kerning first=112 second=122 amount=-1
kerning first=112 second=253 amount=-3
kerning first=114 second=34 amount=6
kerning first=114 second=39 amount=6
kerning first=114 second=97 amount=-3
kerning first=114 second=99 amount=-3
kerning first=114 second=100 amount=-3
kerning first=114 second=101 amount=-3
kerning first=114 second=103 amount=-1
kerning first=114 second=111 amount=-3
kerning first=114 second=113 amount=-3
kerning first=114 second=224 amount=-3
kerning first=114 second=225 amount=-3
kerning first=114 second=226 amount=-3
kerning first=114 second=227 amount=-3
kerning first=114 second=228 amount=-3
kerning first=114 second=229 amount=-3
kerning first=114 second=230 amount=-3
kerning first=114 second=231 amount=-3
kerning first=114 second=232 amount=-3
kerning first=114 second=233 amount=-3
kerning first=114 second=234 amount=-3
kerning first=114 second=235 amount=-3
kerning first=114 second=242 amount=-3
kerning first=114 second=243 amount=-3
kerning first=114 second=244 amount=-3
kerning first=114 second=245 amount=-3
kerning first=114 second=246 amount=-3
kerning first=114 second=248 amount=-3
kerning first=116 second=34 amount=3
kerning first=116 second=39 amount=3
kerning first=118 second=34 amount=6
kerning first=118 second=39 amount=6
kerning first=118 second=44 amount=-6
kerning first=118 second=46 amount=-6
kerning first=118 second=63 amount=3
kerning first=119 second=34 amount=6
kerning first=119 second=39 amount=6
kerning first=119 second=44 amount=-6
kerning first=119 second=46 amount=-6
kerning first=119 second=63 amount=3
kerning first=120 second=99 amount=-3
kerning first=120 second=100 amount=-3
kerning first=120 second=101 amount=-3
kerning first=120 second=111 amount=-3
kerning first=120 second=113 amount=-3
kerning first=120 second=224 amount=-3
kerning first=120 second=231 amount=-3
kerning first=120 second=232 amount=-3
kerning first=120 second=233 amount=-3
kerning first=120 second=234 amount=-3
kerning first=120 second=235 amount=-3
kerning first=120 second=242 amount=-3
kerning first=120 second=243 amount=-3
kerning first=120 second=244 amount=-3
kerning first=120 second=245 amount=-3
kerning first=120 second=246 amount=-3
kerning first=120 second=248 amount=-3
kerning first=121 second=34 amount=6
kerning first=121 second=39 amount=6
kerning first=121 second=44 amount=-6
kerning first=121 second=46 amount=-6
kerning first=121 second=63 amount=3
kerning first=123 second=74 amount=13
kerning first=192 second=34 amount=-10
kerning first=192 second=39 amount=-10
kerning first=192 second=67 amount=-3
kerning first=192 second=71 amount=-3
kerning first=192 second=74 amount=19
kerning first=192 second=79 amount=-3
kerning first=192 second=81 amount=-3
kerning first=192 second=84 amount=-10
kerning first=192 second=86 amount=-6
kerning first=192 second=87 amount=-6
kerning first=192 second=89 amount=-9
kerning first=192 second=199 amount=-3
kerning first=192 second=210 amount=-3
kerning first=192 second=211 amount=-3
kerning first=192 second=212 amount=-3
kerning first=192 second=213 amount=-3
kerning first=192 second=214 amount=-3
kerning first=192 second=216 amount=-3
kerning first=192 second=221 amount=-9
kerning first=193 second=34 amount=-10
kerning first=193 second=39 amount=-10
kerning first=193 second=67 amount=-3
kerning first=193 second=71 amount=-3
kerning first=193 second=74 amount=19
kerning first=193 second=79 amount=-3
kerning first=193 second=81 amount=-3
kerning first=193 second=84 amount=-10
kerning first=193 second=86 amount=-6
kerning first=193 second=87 amount=-6
kerning first=193 second=89 amount=-9
kerning first=193 second=199 amount=-3
kerning first=193 second=210 amount=-3
kerning first=193 second=211 amount=-3
kerning first=193 second=212 amount=-3
kerning first=193 second=213 amount=-3
kerning first=193 second=214 amount=-3
kerning first=193 second=216 amount=-3
kerning first=193 second=221 amount=-9
kerning first=194 second=34 amount=-10
kerning first=194 second=39 amount=-10
kerning first=194 second=67 amount=-3
kerning first=194 second=71 amount=-3
kerning first=194 second=74 amount=19
kerning first=194 second=79 amount=-3
kerning first=194 second=81 amount=-3
kerning first=194 second=84 amount=-10
kerning first=194 second=86 amount=-6
kerning first=194 second=87 amount=-6
kerning first=194 second=89 amount=-9
kerning first=194 second=199 amount=-3
kerning first=194 second=210 amount=-3
kerning first=194 second=211 amount=-3
kerning first=194 second=212 amount=-3
kerning first=194 second=213 amount=-3
kerning first=194 second=214 amount=-3
kerning first=194 second=216 amount=-3
kerning first=194 second=221 amount=-9
kerning first=195 second=34 amount=-10
kerning first=195 second=39 amount=-10
kerning first=195 second=67 amount=-3
kerning first=195 second=71 amount=-3
kerning first=195 second=74 amount=19
kerning first=195 second=79 amount=-3
kerning first=195 second=81 amount=-3
kerning first=195 second=84 amount=-10
kerning first=195 second=86 amount=-6
kerning first=195 second=87 amount=-6
kerning first=195 second=89 amount=-9
kerning first=195 second=199 amount=-3
kerning first=195 second=210 amount=-3
kerning first=195 second=211 amount=-3
kerning first=195 second=212 amount=-3
kerning first=195 second=213 amount=-3
kerning first=195 second=214 amount=-3
kerning first=195 second=216 amount=-3
kerning first=195 second=221 amount=-9
kerning first=196 second=34 amount=-10
kerning first=196 second=39 amount=-10
kerning first=196 second=67 amount=-3
kerning first=196 second=71 amount=-3
kerning first=196 second=74 amount=19
kerning first=196 second=79 amount=-3
kerning first=196 second=81 amount=-3
kerning first=196 second=84 amount=-10
kerning first=196 second=86 amount=-6
kerning first=196 second=87 amount=-6
kerning first=196 second=89 amount=-9
kerning first=196 second=199 amount=-3
kerning first=196 second=210 amount=-3
kerning first=196 second=211 amount=-3
kerning first=196 second=212 amount=-3
kerning first=196 second=213 amount=-3
kerning first=196 second=214 amount=-3
kerning first=196 second=216 amount=-3
kerning first=196 second=221 amount=-9
kerning first=197 second=34 amount=-10
kerning first=197 second=39 amount=-10
kerning first=197 second=67 amount=-3
kerning first=197 second=71 amount=-3
kerning first=197 second=74 amount=19
kerning first=197 second=79 amount=-3
kerning first=197 second=81 amount=-3
kerning first=197 second=84 amount=-10
kerning first=197 second=86 amount=-6
kerning first=197 second=87 amount=-6
kerning first=197 second=89 amount=-9
kerning first=197 second=199 amount=-3
kerning first=197 second=210 amount=-3
kerning first=197 second=211 amount=-3
kerning first=197 second=212 amount=-3
kerning first=197 second=213 amount=-3
kerning first=197 second=214 amount=-3
kerning first=197 second=216 amount=-3
kerning first=197 second=221 amount=-9
kerning first=198 second=74 amount=9
kerning first=199 second=67 amount=-3
kerning first=199 second=71 amount=-3
kerning first=199 second=79 amount=-3
kerning first=199 second=81 amount=-3
kerning first=199 second=199 amount=-3
kerning first=199 second=210 amount=-3
kerning first=199 second=211 amount=-3
kerning first=199 second=212 amount=-3
kerning first=199 second=213 amount=-3
kerning first=199 second=214 amount=-3
kerning first=199 second=216 amount=-3
kerning first=200 second=74 amount=9
kerning first=201 second=74 amount=9
kerning first=202 second=74 amount=9
kerning first=203 second=74 amount=9
kerning first=208 second=44 amount=-6
kerning first=208 second=46 amount=-6
kerning first=208 second=65 amount=-3
kerning first=208 second=84 amount=-4
kerning first=208 second=86 amount=-1
kerning first=208 second=87 amount=-1
kerning first=208 second=88 amount=-3
kerning first=208 second=89 amount=-1
kerning first=208 second=90 amount=-1
kerning first=208 second=192 amount=-3
kerning first=208 second=193 amount=-3
kerning first=208 second=194 amount=-3
kerning first=208 second=195 amount=-3
kerning first=208 second=196 amount=-3
kerning first=208 second=197 amount=-3
kerning first=208 second=221 amount=-1
kerning first=210 second=44 amount=-6
kerning first=210 second=46 amount=-6
kerning first=210 second=65 amount=-3
kerning first=210 second=84 amount=-4
kerning first=210 second=86 amount=-1
kerning first=210 second=87 amount=-1
kerning first=210 second=88 amount=-3
kerning first=210 second=89 amount=-1
kerning first=210 second=90 amount=-1
kerning first=210 second=192 amount=-3
kerning first=210 second=193 amount=-3
kerning first=210 second=194 amount=-3
kerning first=210 second=195 amount=-3
kerning first=210 second=196 amount=-3
kerning first=210 second=197 amount=-3
kerning first=210 second=221 amount=-1
kerning first=211 second=44 amount=-6
kerning first=211 second=46 amount=-6
kerning first=211 second=65 amount=-3
kerning first=211 second=84 amount=-4
kerning first=211 second=86 amount=-1
kerning first=211 second=87 amount=-1
kerning first=211 second=88 amount=-3
kerning first=211 second=89 amount=-1
kerning first=211 second=90 amount=-1
kerning first=211 second=192 amount=-3
kerning first=211 second=193 amount=-3
kerning first=211 second=194 amount=-3
kerning first=211 second=195 amount=-3
kerning first=211 second=196 amount=-3
kerning first=211 second=197 amount=-3
kerning first=211 second=221 amount=-1
kerning first=212 second=44 amount=-6
kerning first=212 second=46 amount=-6
kerning first=212 second=65 amount=-3
kerning first=212 second=84 amount=-4
kerning first=212 second=86 amount=-1
kerning first=212 second=87 amount=-1
kerning first=212 second=88 amount=-3
kerning first=212 second=89 amount=-1
kerning first=212 second=90 amount=-1
kerning first=212 second=192 amount=-3
kerning first=212 second=193 amount=-3
kerning first=212 second=194 amount=-3
kerning first=212 second=195 amount=-3
kerning first=212 second=196 amount=-3
kerning first=212 second=197 amount=-3
kerning first=212 second=221 amount=-1
kerning first=213 second=44 amount=-6
kerning first=213 second=46 amount=-6
kerning first=213 second=65 amount=-3
kerning first=213 second=84 amount=-4
kerning first=213 second=86 amount=-1
kerning first=213 second=87 amount=-1
kerning first=213 second=88 amount=-3
kerning first=213 second=89 amount=-1
kerning first=213 second=90 amount=-1
kerning first=213 second=192 amount=-3
kerning first=213 second=193 amount=-3
kerning first=213 second=194 amount=-3
kerning first=213 second=195 amount=-3
kerning first=213 second=196 amount=-3
kerning first=213 second=197 amount=-3
kerning first=213 second=221 amount=-1
kerning first=214 second=44 amount=-6
kerning first=214 second=46 amount=-6
kerning first=214 second=65 amount=-3
kerning first=214 second=84 amount=-4
kerning first=214 second=86 amount=-1
kerning first=214 second=87 amount=-1
kerning first=214 second=88 amount=-3
kerning first=214 second=89 amount=-1
kerning first=214 second=90 amount=-1
kerning first=214 second=192 amount=-3
kerning first=214 second=193 amount=-3
kerning first=214 second=194 amount=-3
kerning first=214 second=195 amount=-3
kerning first=214 second=196 amount=-3
kerning first=214 second=197 amount=-3
kerning first=214 second=221 amount=-1
kerning first=216 second=44 amount=-6
kerning first=216 second=46 amount=-6
kerning first=216 second=65 amount=-3
kerning first=216 second=84 amount=-4
kerning first=216 second=86 amount=-1
kerning first=216 second=87 amount=-1
kerning first=216 second=88 amount=-3
kerning first=216 second=89 amount=-1
kerning first=216 second=90 amount=-1
kerning first=216 second=192 amount=-3
kerning first=216 second=193 amount=-3
kerning first=216 second=194 amount=-3
kerning first=216 second=195 amount=-3
kerning first=216 second=196 amount=-3
kerning first=216 second=197 amount=-3
kerning first=216 second=221 amount=-1
kerning first=217 second=44 amount=-3
kerning first=217 second=46 amount=-3
kerning first=217 second=65 amount=-1
kerning first=217 second=192 amount=-1
kerning first=217 second=193 amount=-1
kerning first=217 second=194 amount=-1
kerning first=217 second=195 amount=-1
kerning first=217 second=196 amount=-1
kerning first=217 second=197 amount=-1
kerning first=218 second=44 amount=-3
kerning first=218 second=46 amount=-3
kerning first=218 second=65 amount=-1
kerning first=218 second=192 amount=-1
kerning first=218 second=193 amount=-1
kerning first=218 second=194 amount=-1
kerning first=218 second=195 amount=-1
kerning first=218 second=196 amount=-1
kerning first=218 second=197 amount=-1
kerning first=219 second=44 amount=-3
kerning first=219 second=46 amount=-3
kerning first=219 second=65 amount=-1
kerning first=219 second=192 amount=-1
kerning first=219 second=193 amount=-1
kerning first=219 second=194 amount=-1
kerning first=219 second=195 amount=-1
kerning first=219 second=196 amount=-1
kerning first=219 second=197 amount=-1
kerning first=220 second=44 amount=-3
kerning first=220 second=46 amount=-3
kerning first=220 second=65 amount=-1
kerning first=220 second=192 amount=-1
kerning first=220 second=193 amount=-1
kerning first=220 second=194 amount=-1
kerning first=220 second=195 amount=-1
kerning first=220 second=196 amount=-1
kerning first=220 second=197 amount=-1
kerning first=221 second=44 amount=-9
kerning first=221 second=46 amount=-9
kerning first=221 second=63 amount=3
kerning first=221 second=65 amount=-9
kerning first=221 second=67 amount=-3
kerning first=221 second=71 amount=-3
kerning first=221 second=79 amount=-3
kerning first=221 second=81 amount=-3
kerning first=221 second=97 amount=-7
kerning first=221 second=99 amount=-7
kerning first=221 second=100 amount=-7
kerning first=221 second=101 amount=-7
kerning first=221 second=103 amount=-3
kerning first=221 second=109 amount=-4
kerning first=221 second=110 amount=-4
kerning first=221 second=111 amount=-7
kerning first=221 second=112 amount=-4
kerning first=221 second=113 amount=-7
kerning first=221 second=114 amount=-4
kerning first=221 second=115 amount=-6
kerning first=221 second=117 amount=-4
kerning first=221 second=122 amount=-3
kerning first=221 second=192 amount=-9
kerning first=221 second=193 amount=-9
kerning first=221 second=194 amount=-9
kerning first=221 second=195 amount=-9
kerning first=221 second=196 amount=-9
kerning first=221 second=197 amount=-9
kerning first=221 second=199 amount=-3
kerning first=221 second=210 amount=-3
kerning first=221 second=211 amount=-3
kerning first=221 second=212 amount=-3
kerning first=221 second=213 amount=-3
kerning first=221 second=214 amount=-3
kerning first=221 second=216 amount=-3
kerning first=221 second=224 amount=-7
kerning first=221 second=225 amount=-7
kerning first=221 second=226 amount=-7
kerning first=221 second=227 amount=-7
kerning first=221 second=228 amount=-7
kerning first=221 second=229 amount=-7
kerning first=221 second=230 amount=-7
kerning first=221 second=231 amount=-7
kerning first=221 second=232 amount=-7
kerning first=221 second=233 amount=-7
kerning first=221 second=234 amount=-7
kerning first=221 second=235 amount=-7
kerning first=221 second=242 amount=-7
kerning first=221 second=243 amount=-7
kerning first=221 second=244 amount=-7
kerning first=221 second=245 amount=-7
kerning first=221 second=246 amount=-7
kerning first=221 second=248 amount=-7
kerning first=221 second=249 amount=-4
kerning first=221 second=250 amount=-4
kerning first=221 second=251 amount=-4
kerning first=221 second=252 amount=-4
kerning first=222 second=44 amount=-19
kerning first=222 second=46 amount=-19
kerning first=222 second=65 amount=-7
kerning first=222 second=88 amount=-3
kerning first=222 second=90 amount=-1
kerning first=222 second=192 amount=-7
kerning first=222 second=193 amount=-7
kerning first=222 second=194 amount=-7
kerning first=222 second=195 amount=-7
kerning first=222 second=196 amount=-7
kerning first=222 second=197 amount=-7
kerning first=224 second=34 amount=-1
kerning first=224 second=39 amount=-1
kerning first=225 second=34 amount=-1
kerning first=225 second=39 amount=-1
kerning first=226 second=34 amount=-1
kerning first=226 second=39 amount=-1
kerning first=227 second=34 amount=-1
kerning first=227 second=39 amount=-1
kerning first=228 second=34 amount=-1
kerning first=228 second=39 amount=-1
kerning first=229 second=34 amount=-1
kerning first=229 second=39 amount=-1
kerning first=232 second=34 amount=-1
kerning first=232 second=39 amount=-1
kerning first=232 second=118 amount=-3
kerning first=232 second=119 amount=-3
kerning first=232 second=120 amount=-3
kerning first=232 second=121 amount=-3
kerning first=232 second=122 amount=-1
kerning first=232 second=253 amount=-3
kerning first=233 second=34 amount=-1
kerning first=233 second=39 amount=-1
kerning first=233 second=118 amount=-3
kerning first=233 second=119 amount=-3
kerning first=233 second=120 amount=-3
kerning first=233 second=121 amount=-3
kerning first=233 second=122 amount=-1
kerning first=233 second=253 amount=-3
kerning first=234 second=34 amount=-1
kerning first=234 second=39 amount=-1
kerning first=234 second=118 amount=-3
kerning first=234 second=119 amount=-3
kerning first=234 second=120 amount=-3
kerning first=234 second=121 amount=-3
kerning first=234 second=122 amount=-1
kerning first=234 second=253 amount=-3
kerning first=235 second=34 amount=-1
kerning first=235 second=39 amount=-1
kerning first=235 second=118 amount=-3
kerning first=235 second=119 amount=-3
kerning first=235 second=120 amount=-3
kerning first=235 second=121 amount=-3
kerning first=235 second=122 amount=-1
kerning first=235 second=253 amount=-3
kerning first=240 second=34 amount=-1
kerning first=240 second=39 amount=-1
kerning first=240 second=118 amount=-3
kerning first=240 second=119 amount=-3
kerning first=240 second=120 amount=-3
kerning first=240 second=121 amount=-3
kerning first=240 second=122 amount=-1
kerning first=240 second=253 amount=-3
kerning first=242 second=34 amount=-1
kerning first=242 second=39 amount=-1
kerning first=242 second=118 amount=-3
kerning first=242 second=119 amount=-3
kerning first=242 second=120 amount=-3
kerning first=242 second=121 amount=-3
kerning first=242 second=122 amount=-1
kerning first=242 second=253 amount=-3
kerning first=243 second=34 amount=-1
kerning first=243 second=39 amount=-1
kerning first=243 second=118 amount=-3
kerning first=243 second=119 amount=-3
kerning first=243 second=120 amount=-3
kerning first=243 second=121 amount=-3
kerning first=243 second=122 amount=-1
kerning first=243 second=253 amount=-3
kerning first=244 second=34 amount=-1
kerning first=244 second=39 amount=-1
kerning first=244 second=118 amount=-3
kerning first=244 second=119 amount=-3
kerning first=244 second=120 amount=-3
kerning first=244 second=121 amount=-3
kerning first=244 second=122 amount=-1
kerning first=244 second=253 amount=-3
kerning first=246 second=34 amount=-3
kerning first=246 second=39 amount=-3
kerning first=248 second=34 amount=-1
kerning first=248 second=39 amount=-1
kerning first=248 second=118 amount=-3
kerning first=248 second=119 amount=-3
kerning first=248 second=120 amount=-3
kerning first=248 second=121 amount=-3
kerning first=248 second=122 amount=-1
kerning first=248 second=253 amount=-3
kerning first=253 second=34 amount=6
kerning first=253 second=39 amount=6
kerning first=253 second=44 amount=-6
kerning first=253 second=46 amount=-6
kerning first=253 second=63 amount=3
kerning first=254 second=34 amount=-1
kerning first=254 second=39 amount=-1
kerning first=254 second=118 amount=-3
kerning first=254 second=119 amount=-3
kerning first=254 second=120 amount=-3
kerning first=254 second=121 amount=-3
kerning first=254 second=122 amount=-1
kerning first=254 second=253 amount=-3
kerning first=255 second=34 amount=6
kerning first=255 second=39 amount=6
kerning first=255 second=44 amount=-6
kerning first=255 second=46 amount=-6
kerning first=255 second=63 amount=3
